{
  "$schema": "http://json-schema.org/draft-03/schema#",
  "description": "Restores a backup.",
  "type": "object",
  "properties": {
    "action": {
      "type": "string",
      "enum": ["restore"]
    },
    "rules": {
      "description": "Restores a backup to a specifo",
      "type": "array",
      "items": {
        "type": "object"
      }
    },
    "hypervisor": {
      "type": "string",
      "pattern": "[0-9a-f]{8}-[0-9a-f]{4}-[0-9a-f]{4}-[0-9a-f]{4}-[0-9a-f]{12}"
    },
    "package": {
      "type": "string",
      "pattern": "[0-9a-f]{8}-[0-9a-f]{4}-[0-9a-f]{4}-[0-9a-f]{4}-[0-9a-f]{12}"
    }
  }
}
